# OBJ Export by Luxion KeyShot

mtllib lesopilka2.mtl

g Group31809
usemtl default
v 0.935298 1.06476 1.03019
v 0.473722 1.06416 1.03056
v 0.935297 1.14774 1.16187
v 0.473721 1.14715 1.16224
v 0.929598 1.22888 1.28961
v 0.473721 1.22943 1.2915
v 0.935296 1.26665 1.26804
v 0.473721 1.26794 1.2701
v 0.935296 1.30446 1.24422
v 0.473721 1.30575 1.24628
v 0.942623 1.18496 1.13842
v 0.942623 1.22277 1.11459
v 0.942624 1.10197 1.00673
v 0.942624 1.13978 0.982908
v 0.942623 1.26057 1.09077
v 0.935296 1.34226 1.22039
v 0.929598 1.37801 1.19563
v 0.935297 1.29779 1.06731
v 0.473721 1.37948 1.19694
v 0.473721 1.34356 1.22245
v 0.473721 1.29838 1.06694
v 0.00481847 1.30575 1.24628
v 0.00481847 1.34356 1.22245
v -0.464084 1.26794 1.2701
v 0.00481847 1.26794 1.2701
v -0.464084 1.30575 1.24628
v -0.925659 1.26665 1.26804
v -0.925659 1.30446 1.24422
v -0.919961 1.22888 1.28961
v -0.464084 1.22943 1.2915
v -0.92566 1.14774 1.16187
v -0.932987 1.18496 1.13842
v -0.932987 1.22277 1.11459
v -0.464084 1.34356 1.22245
v -0.92566 1.34226 1.22039
v 0.00481847 1.22943 1.2915
v 0.00481847 1.14715 1.16224
v -0.464084 1.14715 1.16224
v 0.00481847 1.06416 1.03056
v -0.932988 1.10197 1.00673
v -0.925661 1.06476 1.03019
v -0.932987 1.26057 1.09077
v -0.919961 1.37801 1.19563
v -0.92566 1.29779 1.06731
v 0.00481847 1.29838 1.06694
v -0.464084 1.29838 1.06694
v 0.00481847 1.37948 1.19694
v -0.464084 1.37948 1.19694
f -44 -43 -45
f -44 -45 -46
f -44 -42 -41
f -44 -41 -43
f -40 -39 -41
f -40 -41 -42
f -38 -37 -40
f -38 -40 -42
f -38 -42 -44
f -38 -44 -46
f -38 -36 -35
f -38 -35 -37
f -46 -48 -36
f -46 -36 -38
f -34 -33 -40
f -34 -40 -37
f -32 -33 -34
f -32 -34 -31
f -32 -30 -29
f -32 -29 -33
f -32 -31 -28
f -32 -28 -30
f -40 -33 -29
f -40 -29 -39
f -27 -39 -29
f -27 -29 -26
f -25 -24 -27
f -25 -27 -23
f -22 -25 -23
f -22 -23 -21
f -22 -20 -19
f -22 -19 -25
f -18 -20 -22
f -18 -22 -17
f -17 -22 -21
f -17 -21 -16
f -23 -15 -14
f -23 -14 -21
f -15 -23 -27
f -15 -27 -26
f -25 -19 -13
f -25 -13 -24
f -45 -43 -13
f -45 -13 -12
f -19 -11 -12
f -19 -12 -13
f -24 -13 -43
f -24 -43 -41
f -41 -39 -27
f -41 -27 -24
f -17 -9 -8
f -17 -8 -18
f -45 -12 -10
f -45 -10 -47
f -6 -5 -7
f -6 -7 -14
f -30 -28 -4
f -30 -4 -2
f -6 -1 -3
f -6 -3 -5
f -2 -1 -15
f -2 -15 -26
f -6 -14 -15
f -6 -15 -1
f -30 -2 -26
f -30 -26 -29
f -20 -18 -11
f -20 -11 -19
f -16 -21 -14
f -16 -14 -7
g Group41927
usemtl default
v 0.986101 0.322408 -2.21442
v 0.992177 0.323394 -1.1228
v 0.999988 0.243496 -1.1228
v 0.992177 0.243497 -2.22806
v 0.992176 0.323394 2.38419e-07
v 0.999987 0.243496 -2.15814e-08
v 0.992175 0.323393 1.12281
v 0.999986 0.243496 1.1228
v 0.986098 0.322407 2.21442
v 0.992173 0.243496 2.22806
v 0.499993 0.323393 2.22807
v 0.499994 0.324662 1.12281
v 0.499993 0.243496 2.24561
v 0.499992 0.162331 2.2456
v 0.992172 0.162331 2.22806
v 0.499991 0.0811658 2.2456
v 0.992171 0.0811658 2.22806
v 0.999985 0.162331 1.1228
v 0.999986 0.162331 -2.91581e-07
v 0.999984 0.0811657 1.1228
v 0.999985 0.0811656 -5.61581e-07
v 0.999987 0.162331 -1.1228
v 0.999986 0.0811655 -1.1228
v 0.992172 0.00126846 -8.21581e-07
v 0.992171 0.00126858 1.1228
v 0.986093 0.00225514 2.21441
v 0.499991 0.0012688 2.22806
v 0.499991 3.57628e-07 1.1228
v 0 0.0012688 2.22806
v 0 3.57628e-07 1.1228
v 0.499992 2.38419e-07 -7.91581e-07
v 1e-08 2.38419e-07 -7.61581e-07
v 0 0.0811658 2.2456
v -0.499991 0.0811658 2.2456
v -0.499991 0.00126874 2.22806
v -1e-08 0.162331 2.2456
v -0.499992 0.162331 2.2456
v 0 0.243496 2.24561
v -0.499993 0.243496 2.24561
v -0.992173 0.243496 2.22806
v -0.992172 0.162331 2.22806
v -0.999985 0.162331 1.1228
v -0.999986 0.243496 1.1228
v -0.986098 0.322407 2.21442
v -0.992175 0.323393 1.12281
v -0.499993 0.323393 2.22807
v 0 0.323393 2.22807
v 0 0.324662 1.12281
v -0.499994 0.324662 1.12281
v 0.499994 0.324662 2.38419e-07
v 0 0.324662 2.38419e-07
v -0.499994 0.324662 2.38419e-07
v 0 0.324662 -1.1228
v -0.499995 0.324662 -1.1228
v 0.499995 0.324662 -1.1228
v 0.499995 0.323394 -2.22807
v 0 0.323394 -2.22807
v 0.499995 0.243497 -2.24561
v 0 0.243497 -2.24561
v 0 0.162331 -2.24561
v 0.499994 0.162331 -2.24561
v 0.992176 0.162331 -2.22806
v -0.499995 0.323394 -2.22807
v -0.499995 0.243497 -2.24561
v -0.992176 0.323394 2.38419e-07
v -0.999987 0.243496 8.41858e-09
v -0.992177 0.323394 -1.1228
v -0.999988 0.243496 -1.1228
v -0.986101 0.322408 -2.21442
v -0.992177 0.243497 -2.22806
v -0.999986 0.162331 -2.21581e-07
v -0.999987 0.162331 -1.1228
v -0.999986 0.0811655 -1.1228
v -0.992176 0.162331 -2.22806
v -0.992175 0.0811654 -2.22806
v -0.999985 0.0811656 -4.61581e-07
v -0.999984 0.0811657 1.1228
v -0.992171 0.0811658 2.22806
v -0.992171 0.00126858 1.1228
v -0.986093 0.0022552 2.21441
v -0.992172 0.00126846 -6.91581e-07
v 0.499993 0 -1.1228
v 0.499993 0.00126803 -2.22806
v 0.986098 0.00225444 -2.21441
v 0.992173 0.00126821 -1.1228
v 0 0 -1.1228
v 0 0.00126803 -2.22806
v -0.499993 0 -1.1228
v -0.499993 0.00126803 -2.22806
v -0.986098 0.00225444 -2.21441
v -0.992173 0.00126821 -1.1228
v -0.499994 0.0811654 -2.2456
v -0.499994 0.162331 -2.24561
v 0 0.0811654 -2.2456
v 0.499994 0.0811654 -2.2456
v 0.992175 0.0811654 -2.22806
v -0.499992 2.38419e-07 -7.31581e-07
v -0.499991 3.57628e-07 1.1228
v 0.991404 1.22126 -1.06898
v 0.991946 1.22449 -0.542018
v 0.992645 0.962952 -0.542017
v 0.991946 0.962952 -1.07557
v 0.991946 1.22449 2.38419e-07
v 0.992645 0.962952 1.18419e-07
v 0.991946 1.22449 0.542018
v 0.992644 0.962952 0.542017
v 0.991403 1.22126 1.06898
v 0.991946 0.962951 1.07557
v 0.947956 1.22449 1.07557
v 0.947956 1.22864 0.542018
v 0.947956 0.962951 1.08403
v 0.947955 0.697262 1.08403
v 0.991946 0.697262 1.07556
v 0.947955 0.431573 1.08403
v 0.991946 0.431573 1.07556
v 0.992644 0.697262 0.542017
v 0.992645 0.697262 -1.15814e-08
v 0.992644 0.431573 0.542016
v 0.992644 0.431572 -1.41581e-07
v 0.992645 0.697262 -0.542017
v 0.992644 0.431572 -0.542016
v 0.991946 0.170034 -2.71581e-07
v 0.991946 0.170034 0.542015
v 0.991403 0.173264 1.06897
v 0.947955 0.170035 1.07556
v 0.947955 0.165883 0.542015
v 0.903267 0.170035 1.07556
v 0.903267 0.165883 0.542015
v 0.947955 0.165883 -2.61581e-07
v 0.903267 0.165883 -2.41581e-07
v 0.903267 0.431573 1.08403
v 0.858578 0.431573 1.08403
v 0.858578 0.170035 1.07556
v 0.903267 0.697262 1.08403
v 0.858578 0.697262 1.08403
v 0.903267 0.962951 1.08403
v 0.858578 0.962951 1.08403
v 0.814587 0.962951 1.07557
v 0.814587 0.697262 1.07556
v 0.813889 0.697262 0.542017
v 0.813889 0.962952 0.542018
v 0.81513 1.22126 1.06898
v 0.814587 1.22449 0.542018
v 0.858578 1.22449 1.07557
v 0.903267 1.22449 1.07557
v 0.903267 1.22864 0.542018
v 0.858578 1.22864 0.542018
v 0.947956 1.22864 2.38419e-07
v 0.903267 1.22864 2.38419e-07
v 0.858578 1.22864 2.38419e-07
v 0.903267 1.22864 -0.542018
v 0.858578 1.22864 -0.542018
v 0.947956 1.22864 -0.542018
v 0.947956 1.22449 -1.07557
v 0.903267 1.22449 -1.07557
v 0.947956 0.962952 -1.08403
v 0.903267 0.962952 -1.08403
v 0.903267 0.697262 -1.08403
v 0.947956 0.697262 -1.08403
v 0.991946 0.697262 -1.07556
v 0.858577 1.22449 -1.07557
v 0.858578 0.962952 -1.08403
v 0.814587 1.22449 2.38419e-07
v 0.813889 0.962952 1.28419e-07
v 0.814587 1.22449 -0.542018
v 0.813889 0.962952 -0.542017
v 0.81513 1.22126 -1.06898
v 0.814587 0.962952 -1.07557
v 0.813889 0.697262 1.84186e-08
v 0.813889 0.697262 -0.542017
v 0.813889 0.431572 -0.542016
v 0.814587 0.697262 -1.07556
v 0.814587 0.431572 -1.07556
v 0.813889 0.431572 -9.15814e-08
v 0.813889 0.431573 0.542016
v 0.814587 0.431573 1.07556
v 0.814587 0.170034 0.542015
v 0.81513 0.173264 1.06898
v 0.814587 0.170034 -2.11581e-07
v 0.947956 0.165882 -0.542016
v 0.947956 0.170033 -1.07556
v 0.991403 0.173262 -1.06898
v 0.991946 0.170033 -0.542016
v 0.903267 0.165882 -0.542016
v 0.903267 0.170033 -1.07556
v 0.858578 0.165882 -0.542016
v 0.858578 0.170033 -1.07556
v 0.81513 0.173262 -1.06898
v 0.814587 0.170033 -0.542016
v 0.858578 0.431572 -1.08403
v 0.858578 0.697262 -1.08403
v 0.903267 0.431572 -1.08403
v 0.947956 0.431572 -1.08403
v 0.991946 0.431572 -1.07556
v 0.858578 0.165883 -2.21581e-07
v 0.858578 0.165883 0.542015
v -0.816544 0.962952 -1.07557
v -0.860535 0.962952 -1.08403
v -0.860535 1.22449 -1.07557
v -0.817087 1.22126 -1.06898
v -0.816544 0.697262 -1.07556
v -0.860535 0.697262 -1.08403
v -0.816544 0.431572 -1.07556
v -0.860535 0.431572 -1.08403
v -0.860535 0.170033 -1.07556
v -0.817087 0.173262 -1.06898
v -0.905224 0.170033 -1.07556
v -0.905224 0.431572 -1.08403
v -0.949913 0.170033 -1.07556
v -0.949913 0.431572 -1.08403
v -0.905224 0.697262 -1.08403
v -0.949913 0.697262 -1.08403
v -0.993904 0.697262 -1.07556
v -0.993903 0.431572 -1.07556
v -0.994601 0.431572 -0.542016
v -0.994602 0.697262 -0.542017
v -0.99336 0.173262 -1.06898
v -0.993903 0.170033 -0.542016
v -0.993904 0.962952 -1.07557
v -0.994602 0.962952 -0.542017
v -0.994601 0.697262 1.84186e-08
v -0.994602 0.962952 1.28419e-07
v -0.994601 0.431572 -9.15814e-08
v -0.949913 0.962952 -1.08403
v -0.949913 1.22449 -1.07557
v -0.993361 1.22126 -1.06898
v -0.905224 0.962952 -1.08403
v -0.905224 1.22449 -1.07557
v -0.860535 1.22864 -0.542018
v -0.816544 1.22449 -0.542018
v -0.905224 1.22864 -0.542018
v -0.905224 1.22864 2.38419e-07
v -0.860535 1.22864 2.38419e-07
v -0.816544 1.22449 2.38419e-07
v -0.905224 0.165882 -0.542016
v -0.949913 0.165882 -0.542016
v -0.905224 0.165883 -2.41581e-07
v -0.949913 0.165883 -2.21581e-07
v -0.905224 0.165883 0.542015
v -0.860535 0.165883 -2.61581e-07
v -0.860535 0.165883 0.542015
v -0.949912 0.170035 1.07556
v -0.949913 0.165883 0.542015
v -0.905224 0.170035 1.07556
v -0.99336 0.173264 1.06898
v -0.993903 0.170034 0.542015
v -0.993903 0.170034 -2.11581e-07
v -0.993903 0.431573 1.07556
v -0.994601 0.431573 0.542016
v -0.949913 0.431573 1.08403
v -0.905224 0.431573 1.08403
v -0.860535 0.170035 1.07556
v -0.860535 0.431573 1.08403
v -0.816544 0.170034 -2.71581e-07
v -0.816544 0.170034 0.542015
v -0.815846 0.431572 -1.41581e-07
v -0.815846 0.431573 0.542016
v -0.817088 0.173264 1.06897
v -0.816544 0.431573 1.07556
v -0.815846 0.697262 -1.15814e-08
v -0.815846 0.697262 0.542017
v -0.815846 0.431572 -0.542016
v -0.815846 0.697262 -0.542017
v -0.816544 0.170033 -0.542016
v -0.860535 0.165882 -0.542016
v -0.815846 0.962952 -0.542017
v -0.815846 0.962952 1.18419e-07
v -0.815846 0.962952 0.542017
v -0.816544 0.962951 1.07557
v -0.816544 0.697262 1.07556
v -0.817087 1.22126 1.06898
v -0.860535 1.22449 1.07557
v -0.860535 0.962951 1.08403
v -0.860535 1.22864 0.542018
v -0.816544 1.22449 0.542018
v -0.905224 1.22864 0.542018
v -0.905224 1.22449 1.07557
v -0.949913 1.22864 0.542018
v -0.949913 1.22449 1.07557
v -0.949913 0.962951 1.08403
v -0.905224 0.962951 1.08403
v -0.99336 1.22126 1.06898
v -0.993903 1.22449 0.542018
v -0.949913 1.22864 2.38419e-07
v -0.993904 1.22449 2.38419e-07
v -0.860535 0.697262 1.08403
v -0.905224 0.697262 1.08403
v -0.949913 0.697262 1.08403
v -0.993903 0.697262 1.07556
v -0.994601 0.697262 0.542017
v -0.993903 0.962951 1.07557
v -0.994601 0.962952 0.542018
v 0.929602 1.05164 -1.05941
v 0.9353 1.09509 -1.06481
v 0.942625 1.09509 -0.627418
v 0.935299 1.0511 -0.627418
v 0.942625 1.13978 -0.627418
v 0.9353 1.13978 -1.06481
v 0.942625 1.18447 -0.627418
v 0.9353 1.18447 -1.06481
v 0.942624 1.18447 -0.183078
v 0.935299 1.22846 -0.627418
v 0.935298 1.22846 -0.183078
v 0.942623 1.18447 0.261261
v 0.942623 1.13978 0.261261
v 0.942624 1.13978 -0.183078
v 0.935296 1.18447 0.698658
v 0.935297 1.22846 0.261261
v 0.929598 1.22792 0.693258
v 0.935296 1.13978 0.698658
v 0.473721 1.18447 0.7056
v 0.473721 1.13978 0.7056
v 0.935296 1.09509 0.698658
v 0.942623 1.09509 0.261261
v 0.473721 1.0511 0.698657
v 0.929598 1.05164 0.693258
v 0.473721 1.09509 0.7056
v 0.473721 1.0504 0.261261
v 0.935297 1.0511 0.261261
v 0.00481846 1.0511 0.698656
v 0.00481846 1.0504 0.26126
v 0.00481846 1.09509 0.705599
v 0.00481846 1.13978 0.705599
v 0.00481846 1.18447 0.705599
v 0.942624 1.09509 -0.183078
v 0.935298 1.0511 -0.183078
v 0.473721 1.22846 0.698657
v 0.473721 1.22916 0.261261
v 0.473722 1.22916 -0.183078
v 0.473722 1.22916 -0.627418
v 0.929602 1.22792 -1.05941
v 0.473722 1.22846 -1.06481
v 0.00481846 1.22916 0.26126
v 0.00481846 1.22916 -0.183078
v 0.00481804 1.22916 -0.627417
v 0.00481846 1.22846 0.698656
v -0.464084 1.22846 0.698655
v -0.464084 1.18447 0.705598
v -0.919961 1.22792 0.693254
v -0.92566 1.18447 0.698654
v -0.464084 1.22916 0.26126
v -0.92566 1.22846 0.261259
v 0.473723 1.18447 -1.07176
v 0.473723 1.13978 -1.07176
v 0.00481804 1.13978 -1.07176
v 0.00481804 1.18447 -1.07176
v -0.464086 1.13978 -1.07176
v -0.464086 1.18447 -1.07176
v -0.925664 1.13978 -1.06481
v -0.925664 1.18447 -1.06481
v -0.932989 1.13978 -0.627416
v -0.932989 1.18447 -0.627416
v -0.932988 1.18447 -0.183079
v -0.932988 1.13978 -0.183079
v -0.925661 1.22846 -0.183079
v -0.932987 1.18447 0.261259
v -0.464085 1.22916 -0.183079
v -0.464085 1.22916 -0.627417
v -0.925663 1.22846 -0.627416
v -0.932987 1.13978 0.261259
v -0.925659 1.13978 0.698654
v -0.932989 1.09509 -0.627416
v -0.932988 1.09509 -0.183079
v -0.925663 1.0511 -0.627416
v -0.925661 1.0511 -0.183079
v -0.919965 1.05164 -1.05941
v -0.464086 1.0511 -1.06481
v -0.464085 1.0504 -0.627417
v -0.925664 1.09509 -1.06481
v -0.464085 1.0504 -0.183079
v -0.932987 1.09509 0.261259
v -0.92566 1.0511 0.261259
v -0.919965 1.22792 -1.05941
v -0.464086 1.22846 -1.06481
v 0.00481804 1.22846 -1.06481
v -0.464086 1.09509 -1.07176
v 0.00481804 1.09509 -1.07176
v 0.00481804 1.0511 -1.06481
v 0.473723 1.0511 -1.06481
v 0.473723 1.09509 -1.07176
v 0.00481846 1.0504 -0.627417
v 0.473722 1.0504 -0.627418
v 0.473722 1.0504 -0.183078
v 0.00481846 1.0504 -0.183078
v -0.464084 1.0504 0.26126
v -0.464084 1.0511 0.698655
v -0.919961 1.05164 0.693254
v -0.925659 1.09509 0.698654
v -0.464084 1.13978 0.705598
v -0.464084 1.09509 0.705598
v 0.929602 0.901547 0.770189
v 0.935299 0.981769 0.898504
v 0.473722 0.981179 0.898877
v 0.473723 0.90008 0.768878
v 0.935298 1.06476 1.03019
v 0.473722 1.06416 1.03056
v 0.935297 1.14774 1.16187
v 0.473721 1.14715 1.16224
v 0.942623 1.22277 1.11459
v 0.942624 1.10197 1.00673
v 0.942624 1.13978 0.982908
v 0.942625 1.01899 0.875051
v 0.942625 1.05679 0.851225
v 0.9353 0.937297 0.745424
v 0.9353 0.975105 0.721598
v 0.473723 0.936 0.743367
v 0.473723 0.973808 0.719541
v 0.942625 1.0946 0.827398
v 0.942624 1.17759 0.959082
v 0.9353 1.01291 0.697772
v 0.942623 1.26057 1.09077
v 0.935297 1.29779 1.06731
v 0.473721 1.29838 1.06694
v 0.935298 1.2148 0.935628
v 0.473722 1.2154 0.935256
v 0.935299 1.13182 0.803945
v 0.473722 1.13241 0.803572
v -0.92566 1.14774 1.16187
v -0.932987 1.18496 1.13842
v -0.932987 1.22277 1.11459
v 0.00481847 1.14715 1.16224
v -0.464084 1.14715 1.16224
v 0.00481846 0.981179 0.898877
v 0.00481847 1.06416 1.03056
v -0.464085 0.981179 0.898877
v -0.464086 0.90008 0.768879
v 0.00481804 0.90008 0.768879
v -0.925663 0.98177 0.898505
v -0.919965 0.901549 0.77019
v 0.00481804 0.936 0.743367
v -0.464086 0.936001 0.743367
v 0.00481804 0.973808 0.719541
v -0.464086 1.01162 0.695715
v 0.00481804 1.01162 0.695715
v -0.464086 0.973808 0.719541
v -0.464086 1.05013 0.674319
v 0.00481804 1.05013 0.674319
v -0.464085 1.13241 0.803573
v 0.00481804 1.13241 0.803573
v -0.919965 1.05068 0.676209
v -0.925663 1.13182 0.803945
v -0.925664 1.01291 0.697773
v 0.473723 1.01162 0.695715
v 0.473722 1.05013 0.674318
v -0.925664 0.975105 0.721599
v -0.925664 0.937297 0.745425
v -0.932989 1.01899 0.875051
v -0.932988 1.10197 1.00673
v -0.925661 1.06476 1.03019
v -0.932988 1.13978 0.982908
v -0.932989 1.05679 0.851225
v -0.932988 1.17759 0.959082
v -0.932989 1.0946 0.827399
v -0.932987 1.26057 1.09077
v -0.464085 1.06416 1.03056
v 0.929602 1.05068 0.676208
v -0.92566 1.29779 1.06731
v -0.925661 1.2148 0.935629
v -0.464085 1.2154 0.935256
v 0.00481846 1.2154 0.935256
v 0.00481847 1.29838 1.06694
v -0.464084 1.29838 1.06694
v 0.00481847 1.37948 1.19694
v -0.464084 1.37948 1.19694
v 0.923052 0.787524 -1.35041
v 0.918344 0.749686 -1.32874
v 0.462602 0.742029 -1.32032
v 0.461595 0.780024 -1.34261
v 0.932347 0.857753 -1.21436
v 0.92206 0.827253 -1.37085
v 0.931355 0.897482 -1.2348
v 0.93435 0.928994 -1.07598
v 0.928002 0.889785 -1.0557
v 0.925999 0.818544 -1.19408
v 0.936352 1.00024 -0.937604
v 0.930004 0.961026 -0.917326
v 0.926243 1.03069 -0.782918
v 0.930999 1.07026 -0.801231
v 0.470552 1.02477 -0.771143
v 0.468595 0.954018 -0.907037
v -0.00202293 1.01828 -0.761016
v -0.00292116 0.947529 -0.896911
v -0.460918 1.02463 -0.770935
v -0.458961 0.953885 -0.90683
v -0.00200611 1.0585 -0.778974
v -0.459973 1.06485 -0.788893
v 0.469607 1.06499 -0.789101
v 0.468615 1.10472 -0.80954
v 0.00193909 1.09822 -0.79943
v 0.930008 1.10999 -0.821671
v -0.458982 1.10458 -0.809332
v -0.45799 1.14431 -0.829771
v -0.919383 1.14959 -0.841903
v -0.920374 1.10986 -0.821463
v -0.00282731 1.13794 -0.819886
v -0.921365 1.07013 -0.801024
v -0.916609 1.03056 -0.782712
v -0.920371 0.960893 -0.917118
v -0.926719 1.0001 -0.937397
v -0.918368 0.889652 -1.05549
v -0.924716 0.928861 -1.07577
v -0.925727 1.03983 -0.957835
v -0.923724 0.96859 -1.09621
v -0.456959 0.882644 -1.04521
v -0.916366 0.818411 -1.19387
v -0.454956 0.811403 -1.18358
v 0.0046388 0.876287 -1.03529
v -0.00408899 0.805042 -1.17367
v 0.466593 0.882777 -1.04541
v 0.46459 0.811536 -1.18379
v -0.00317952 0.735531 -1.31022
v 0.93536 1.03996 -0.958043
v 0.934369 1.07969 -0.978482
v 0.929016 1.14972 -0.84211
v 0.922331 1.1874 -0.86354
v 0.926068 1.1187 -0.998444
v 0.466617 1.18244 -0.852261
v 0.467624 1.14444 -0.829979
v -0.00373775 1.17593 -0.842185
v -0.456983 1.18231 -0.852053
v -0.912697 1.18727 -0.863333
v -0.916435 1.11857 -0.998236
v -0.454995 1.1128 -0.988587
v -0.00282786 1.10642 -0.978728
v 0.464629 1.11293 -0.988795
v 0.462626 1.04169 -1.12717
v 0.001938 1.03517 -1.11711
v 0.924067 1.04746 -1.13682
v 0.932366 1.00845 -1.11686
v 0.930364 0.937211 -1.25524
v 0.933358 0.968723 -1.09642
v 0.921069 0.866981 -1.39129
v 0.460604 0.819752 -1.36305
v 0.459612 0.859481 -1.38348
v 0.914433 0.906393 -1.40936
v 0.922064 0.976217 -1.2752
v 0.458667 0.899702 -1.40144
v 0.00463728 0.813239 -1.35297
v 0.00369749 0.852961 -1.37343
v -0.00408996 0.773518 -1.33252
v -0.913419 0.787391 -1.3502
v -0.90871 0.749553 -1.32853
v -0.922714 0.85762 -1.21415
v -0.912427 0.82712 -1.37064
v -0.921723 0.897349 -1.23459
v -0.920731 0.937077 -1.25503
v -0.911436 0.866848 -1.39108
v -0.922733 1.00832 -1.11665
v -0.924736 1.07956 -0.978275
v -0.914433 1.04732 -1.13661
v -0.452993 1.04156 -1.12696
v -0.45099 0.970317 -1.26534
v -0.912431 0.976084 -1.27499
v -0.00200817 0.963927 -1.2555
v 0.0027577 0.893175 -1.3914
v -0.449034 0.899568 -1.40123
v -0.449978 0.859348 -1.38328
v -0.45097 0.819619 -1.36284
v -0.451961 0.779891 -1.3424
v -0.904799 0.90626 -1.40915
v 0.460623 0.97045 -1.26555
v -0.452969 0.741896 -1.32012
v -0.949913 1.22864 -0.542018
v -0.993904 1.22449 -0.542018
f -564 -563 -562
f -564 -562 -561
f -563 -560 -559
f -563 -559 -562
f -558 -557 -559
f -558 -559 -560
f -558 -556 -555
f -558 -555 -557
f -554 -556 -558
f -554 -558 -553
f -556 -554 -552
f -556 -552 -555
f -551 -550 -555
f -551 -555 -552
f -550 -551 -549
f -550 -549 -548
f -547 -557 -555
f -547 -555 -550
f -546 -547 -545
f -546 -545 -544
f -546 -543 -562
f -546 -562 -559
f -546 -544 -542
f -546 -542 -543
f -559 -557 -547
f -559 -547 -546
f -545 -547 -550
f -545 -550 -548
f -541 -544 -545
f -541 -545 -540
f -545 -548 -539
f -545 -539 -540
f -538 -539 -548
f -538 -548 -549
f -539 -538 -537
f -539 -537 -540
f -538 -536 -535
f -538 -535 -537
f -534 -541 -540
f -534 -540 -537
f -534 -537 -535
f -534 -535 -533
f -536 -538 -549
f -536 -549 -532
f -532 -531 -530
f -532 -530 -536
f -529 -528 -531
f -529 -531 -532
f -549 -551 -529
f -549 -529 -532
f -552 -527 -529
f -552 -529 -551
f -529 -527 -526
f -529 -526 -528
f -528 -526 -525
f -528 -525 -524
f -523 -524 -525
f -523 -525 -522
f -521 -520 -522
f -521 -522 -525
f -525 -526 -519
f -525 -519 -521
f -527 -518 -519
f -527 -519 -526
f -527 -552 -554
f -527 -554 -518
f -518 -517 -516
f -518 -516 -519
f -517 -518 -554
f -517 -554 -553
f -560 -515 -553
f -560 -553 -558
f -515 -514 -517
f -515 -517 -553
f -513 -516 -517
f -513 -517 -514
f -514 -512 -511
f -514 -511 -513
f -515 -510 -512
f -515 -512 -514
f -510 -509 -508
f -510 -508 -512
f -509 -507 -506
f -509 -506 -508
f -505 -506 -507
f -505 -507 -504
f -504 -507 -561
f -504 -561 -503
f -564 -561 -507
f -564 -507 -509
f -508 -502 -511
f -508 -511 -512
f -506 -501 -502
f -506 -502 -508
f -510 -563 -564
f -510 -564 -509
f -510 -515 -560
f -510 -560 -563
f -516 -513 -500
f -516 -500 -520
f -499 -522 -520
f -499 -520 -500
f -499 -500 -498
f -499 -498 -497
f -511 -502 -496
f -511 -496 -498
f -498 -496 -495
f -498 -495 -497
f -502 -501 -495
f -502 -495 -496
f -511 -498 -500
f -511 -500 -513
f -523 -522 -499
f -523 -499 -494
f -494 -499 -497
f -494 -497 -493
f -492 -493 -491
f -492 -491 -490
f -493 -497 -495
f -493 -495 -491
f -492 -489 -494
f -492 -494 -493
f -489 -488 -523
f -489 -523 -494
f -488 -487 -524
f -488 -524 -523
f -488 -486 -485
f -488 -485 -487
f -484 -486 -488
f -484 -488 -489
f -483 -482 -481
f -483 -481 -480
f -483 -479 -478
f -483 -478 -482
f -479 -477 -476
f -479 -476 -478
f -475 -476 -477
f -475 -477 -474
f -475 -490 -473
f -475 -473 -476
f -472 -505 -471
f -472 -471 -473
f -495 -501 -472
f -495 -472 -491
f -472 -473 -490
f -472 -490 -491
f -501 -506 -505
f -501 -505 -472
f -476 -473 -471
f -476 -471 -478
f -471 -470 -482
f -471 -482 -478
f -504 -470 -471
f -504 -471 -505
f -481 -482 -470
f -481 -470 -469
f -481 -469 -542
f -481 -542 -480
f -480 -541 -534
f -480 -534 -483
f -480 -542 -544
f -480 -544 -541
f -543 -542 -469
f -543 -469 -503
f -504 -503 -469
f -504 -469 -470
f -475 -474 -492
f -475 -492 -490
f -474 -484 -489
f -474 -489 -492
f -477 -468 -484
f -477 -484 -474
f -468 -467 -486
f -468 -486 -484
f -485 -486 -467
f -485 -467 -530
f -467 -535 -536
f -467 -536 -530
f -467 -468 -533
f -467 -533 -535
f -479 -533 -468
f -479 -468 -477
f -483 -534 -533
f -483 -533 -479
f -466 -465 -464
f -466 -464 -463
f -465 -462 -461
f -465 -461 -464
f -460 -459 -461
f -460 -461 -462
f -460 -458 -457
f -460 -457 -459
f -456 -458 -460
f -456 -460 -455
f -458 -456 -454
f -458 -454 -457
f -453 -452 -457
f -453 -457 -454
f -452 -453 -451
f -452 -451 -450
f -449 -459 -457
f -449 -457 -452
f -448 -449 -447
f -448 -447 -446
f -448 -445 -464
f -448 -464 -461
f -448 -446 -444
f -448 -444 -445
f -461 -459 -449
f -461 -449 -448
f -447 -449 -452
f -447 -452 -450
f -443 -446 -447
f -443 -447 -442
f -447 -450 -441
f -447 -441 -442
f -440 -441 -450
f -440 -450 -451
f -441 -440 -439
f -441 -439 -442
f -440 -438 -437
f -440 -437 -439
f -436 -443 -442
f -436 -442 -439
f -436 -439 -437
f -436 -437 -435
f -438 -440 -451
f -438 -451 -434
f -434 -433 -432
f -434 -432 -438
f -431 -430 -433
f -431 -433 -434
f -451 -453 -431
f -451 -431 -434
f -454 -429 -431
f -454 -431 -453
f -431 -429 -428
f -431 -428 -430
f -430 -428 -427
f -430 -427 -426
f -425 -426 -427
f -425 -427 -424
f -423 -422 -424
f -423 -424 -427
f -427 -428 -421
f -427 -421 -423
f -429 -420 -421
f -429 -421 -428
f -429 -454 -456
f -429 -456 -420
f -420 -419 -418
f -420 -418 -421
f -419 -420 -456
f -419 -456 -455
f -462 -417 -455
f -462 -455 -460
f -417 -416 -419
f -417 -419 -455
f -415 -418 -419
f -415 -419 -416
f -416 -414 -413
f -416 -413 -415
f -417 -412 -414
f -417 -414 -416
f -412 -411 -410
f -412 -410 -414
f -411 -409 -408
f -411 -408 -410
f -407 -408 -409
f -407 -409 -406
f -406 -409 -463
f -406 -463 -405
f -466 -463 -409
f -466 -409 -411
f -410 -404 -413
f -410 -413 -414
f -408 -403 -404
f -408 -404 -410
f -412 -465 -466
f -412 -466 -411
f -412 -417 -462
f -412 -462 -465
f -418 -415 -402
f -418 -402 -422
f -401 -424 -422
f -401 -422 -402
f -401 -402 -400
f -401 -400 -399
f -413 -404 -398
f -413 -398 -400
f -400 -398 -397
f -400 -397 -399
f -404 -403 -397
f -404 -397 -398
f -413 -400 -402
f -413 -402 -415
f -425 -424 -401
f -425 -401 -396
f -396 -401 -399
f -396 -399 -395
f -394 -395 -393
f -394 -393 -392
f -395 -399 -397
f -395 -397 -393
f -394 -391 -396
f -394 -396 -395
f -391 -390 -425
f -391 -425 -396
f -390 -389 -426
f -390 -426 -425
f -390 -388 -387
f -390 -387 -389
f -386 -388 -390
f -386 -390 -391
f -385 -384 -383
f -385 -383 -382
f -385 -381 -380
f -385 -380 -384
f -381 -379 -378
f -381 -378 -380
f -377 -378 -379
f -377 -379 -376
f -377 -392 -375
f -377 -375 -378
f -374 -407 -373
f -374 -373 -375
f -397 -403 -374
f -397 -374 -393
f -374 -375 -392
f -374 -392 -393
f -403 -408 -407
f -403 -407 -374
f -378 -375 -373
f -378 -373 -380
f -373 -372 -384
f -373 -384 -380
f -406 -372 -373
f -406 -373 -407
f -383 -384 -372
f -383 -372 -371
f -383 -371 -444
f -383 -444 -382
f -382 -443 -436
f -382 -436 -385
f -382 -444 -446
f -382 -446 -443
f -445 -444 -371
f -445 -371 -405
f -406 -405 -371
f -406 -371 -372
f -377 -376 -394
f -377 -394 -392
f -376 -386 -391
f -376 -391 -394
f -379 -370 -386
f -379 -386 -376
f -370 -369 -388
f -370 -388 -386
f -387 -388 -369
f -387 -369 -432
f -369 -437 -438
f -369 -438 -432
f -369 -370 -435
f -369 -435 -437
f -381 -435 -370
f -381 -370 -379
f -385 -436 -435
f -385 -435 -381
f -368 -367 -366
f -368 -366 -365
f -368 -364 -363
f -368 -363 -367
f -364 -362 -361
f -364 -361 -363
f -360 -361 -362
f -360 -362 -359
f -360 -358 -357
f -360 -357 -361
f -357 -358 -356
f -357 -356 -355
f -357 -354 -363
f -357 -363 -361
f -355 -353 -354
f -355 -354 -357
f -352 -353 -355
f -352 -355 -351
f -352 -351 -350
f -352 -350 -349
f -351 -348 -347
f -351 -347 -350
f -351 -355 -356
f -351 -356 -348
f -346 -352 -349
f -346 -349 -345
f -345 -349 -344
f -345 -344 -343
f -350 -342 -344
f -350 -344 -349
f -341 -353 -352
f -341 -352 -346
f -340 -341 -346
f -340 -346 -339
f -341 -338 -354
f -341 -354 -353
f -337 -338 -341
f -337 -341 -340
f -354 -338 -367
f -354 -367 -363
f -337 -366 -367
f -337 -367 -338
f -365 -366 -336
f -365 -336 -335
f -334 -333 -332
f -334 -332 -336
f -336 -366 -337
f -336 -337 -334
f -331 -335 -336
f -331 -336 -332
f -356 -358 -330
f -356 -330 -329
f -328 -327 -329
f -328 -329 -330
f -326 -328 -325
f -326 -325 -324
f -323 -322 -326
f -323 -326 -321
f -322 -323 -320
f -322 -320 -319
f -322 -327 -328
f -322 -328 -326
f -318 -327 -322
f -318 -322 -319
f -317 -316 -319
f -317 -319 -320
f -323 -315 -317
f -323 -317 -320
f -315 -323 -321
f -315 -321 -314
f -321 -313 -312
f -321 -312 -314
f -326 -324 -313
f -326 -313 -321
f -324 -325 -311
f -324 -311 -310
f -310 -311 -309
f -310 -309 -308
f -307 -310 -308
f -307 -308 -306
f -313 -324 -310
f -313 -310 -307
f -308 -309 -305
f -308 -305 -304
f -303 -302 -305
f -303 -305 -309
f -309 -311 -301
f -309 -301 -303
f -325 -300 -301
f -325 -301 -311
f -328 -330 -300
f -328 -300 -325
f -301 -300 -360
f -301 -360 -359
f -330 -358 -360
f -330 -360 -300
f -347 -348 -356
f -347 -356 -329
f -347 -329 -327
f -347 -327 -318
f -359 -362 -303
f -359 -303 -301
f -362 -364 -302
f -362 -302 -303
f -364 -368 -299
f -364 -299 -302
f -298 -305 -302
f -298 -302 -299
f -335 -331 -298
f -335 -298 -299
f -298 -297 -304
f -298 -304 -305
f -297 -296 -295
f -297 -295 -304
f -294 -293 -292
f -294 -292 -296
f -291 -293 -294
f -291 -294 -290
f -331 -332 -291
f -331 -291 -290
f -331 -290 -297
f -331 -297 -298
f -297 -290 -294
f -297 -294 -296
f -291 -289 -288
f -291 -288 -293
f -288 -289 -287
f -288 -287 -286
f -286 -285 -284
f -286 -284 -288
f -284 -292 -293
f -284 -293 -288
f -283 -286 -287
f -283 -287 -282
f -287 -281 -280
f -287 -280 -282
f -281 -287 -289
f -281 -289 -333
f -291 -332 -333
f -291 -333 -289
f -279 -295 -296
f -279 -296 -292
f -279 -312 -306
f -279 -306 -295
f -308 -304 -295
f -308 -295 -306
f -279 -278 -314
f -279 -314 -312
f -284 -278 -279
f -284 -279 -292
f -277 -315 -314
f -277 -314 -278
f -277 -276 -317
f -277 -317 -315
f -317 -276 -275
f -317 -275 -316
f -275 -276 -274
f -275 -274 -273
f -276 -277 -285
f -276 -285 -274
f -285 -277 -278
f -285 -278 -284
f -365 -335 -299
f -365 -299 -368
f -272 -271 -270
f -272 -270 -269
f -268 -270 -271
f -268 -271 -267
f -266 -268 -267
f -266 -267 -265
f -264 -266 -263
f -264 -263 -262
f -264 -261 -260
f -264 -260 -259
f -258 -261 -257
f -258 -257 -256
f -255 -258 -254
f -255 -254 -253
f -255 -260 -261
f -255 -261 -258
f -260 -255 -252
f -260 -252 -251
f -250 -249 -252
f -250 -252 -248
f -249 -250 -247
f -249 -247 -246
f -247 -250 -245
f -247 -245 -244
f -248 -243 -245
f -248 -245 -250
f -252 -255 -253
f -252 -253 -248
f -248 -253 -242
f -248 -242 -243
f -253 -254 -241
f -253 -241 -242
f -249 -246 -251
f -249 -251 -252
f -251 -240 -259
f -251 -259 -260
f -239 -240 -251
f -239 -251 -246
f -258 -256 -238
f -258 -238 -254
f -257 -237 -238
f -257 -238 -256
f -257 -262 -236
f -257 -236 -237
f -262 -263 -235
f -262 -235 -236
f -234 -233 -235
f -234 -235 -263
f -263 -266 -265
f -263 -265 -234
f -232 -237 -236
f -232 -236 -231
f -230 -231 -236
f -230 -236 -235
f -264 -262 -257
f -264 -257 -261
f -229 -241 -254
f -229 -254 -238
f -228 -227 -241
f -228 -241 -229
f -228 -226 -225
f -228 -225 -227
f -224 -223 -226
f -224 -226 -228
f -224 -228 -229
f -224 -229 -232
f -237 -232 -229
f -237 -229 -238
f -259 -268 -266
f -259 -266 -264
f -222 -265 -267
f -222 -267 -221
f -220 -219 -222
f -220 -222 -221
f -220 -218 -217
f -220 -217 -219
f -218 -216 -215
f -218 -215 -217
f -216 -214 -213
f -216 -213 -215
f -212 -213 -214
f -212 -214 -211
f -210 -212 -209
f -210 -209 -223
f -208 -207 -206
f -208 -206 -210
f -224 -208 -210
f -224 -210 -223
f -210 -206 -213
f -210 -213 -212
f -225 -209 -205
f -225 -205 -204
f -205 -209 -212
f -205 -212 -211
f -226 -223 -209
f -226 -209 -225
f -214 -203 -202
f -214 -202 -211
f -201 -200 -202
f -201 -202 -203
f -199 -198 -197
f -199 -197 -201
f -199 -201 -203
f -199 -203 -196
f -201 -197 -195
f -201 -195 -200
f -205 -211 -202
f -205 -202 -194
f -193 -194 -202
f -193 -202 -200
f -196 -203 -214
f -196 -214 -216
f -213 -206 -192
f -213 -192 -215
f -192 -191 -217
f -192 -217 -215
f -219 -217 -191
f -219 -191 -190
f -230 -190 -191
f -230 -191 -207
f -192 -206 -207
f -192 -207 -191
f -189 -196 -216
f -189 -216 -218
f -220 -188 -189
f -220 -189 -218
f -189 -188 -187
f -189 -187 -198
f -186 -187 -188
f -186 -188 -185
f -198 -187 -184
f -198 -184 -197
f -186 -183 -184
f -186 -184 -187
f -221 -185 -188
f -221 -188 -220
f -271 -185 -221
f -271 -221 -267
f -199 -196 -189
f -199 -189 -198
f -233 -234 -265
f -233 -265 -222
f -222 -219 -190
f -222 -190 -233
f -270 -268 -259
f -270 -259 -240
f -269 -270 -240
f -269 -240 -239
f -272 -269 -183
f -272 -183 -186
f -269 -239 -182
f -269 -182 -183
f -183 -182 -181
f -183 -181 -184
f -197 -184 -181
f -197 -181 -195
f -244 -180 -195
f -244 -195 -181
f -245 -179 -180
f -245 -180 -244
f -179 -178 -193
f -179 -193 -180
f -178 -177 -194
f -178 -194 -193
f -205 -194 -177
f -205 -177 -204
f -176 -204 -177
f -176 -177 -175
f -175 -177 -178
f -175 -178 -179
f -179 -245 -243
f -179 -243 -175
f -200 -195 -180
f -200 -180 -193
f -182 -247 -244
f -182 -244 -181
f -182 -239 -246
f -182 -246 -247
f -186 -185 -271
f -186 -271 -272
f -174 -173 -172
f -174 -172 -171
f -173 -170 -169
f -173 -169 -172
f -170 -168 -167
f -170 -167 -169
f -163 -162 -164
f -163 -164 -165
f -163 -161 -160
f -163 -160 -162
f -173 -174 -161
f -173 -161 -163
f -159 -158 -160
f -159 -160 -161
f -174 -171 -159
f -174 -159 -161
f -164 -162 -157
f -164 -157 -156
f -162 -160 -155
f -162 -155 -157
f -165 -170 -173
f -165 -173 -163
f -164 -156 -154
f -164 -154 -166
f -153 -154 -156
f -153 -156 -151
f -153 -151 -150
f -153 -150 -152
f -151 -149 -148
f -151 -148 -150
f -156 -157 -149
f -156 -149 -151
f -142 -172 -169
f -142 -169 -141
f -142 -140 -139
f -142 -139 -138
f -139 -140 -137
f -139 -137 -136
f -135 -138 -139
f -135 -139 -134
f -159 -171 -138
f -159 -138 -135
f -172 -142 -138
f -172 -138 -171
f -159 -135 -133
f -159 -133 -158
f -132 -131 -133
f -132 -133 -130
f -132 -129 -128
f -132 -128 -131
f -129 -127 -126
f -129 -126 -128
f -129 -125 -124
f -129 -124 -127
f -132 -123 -125
f -132 -125 -129
f -133 -131 -122
f -133 -122 -158
f -122 -131 -128
f -122 -128 -121
f -130 -120 -123
f -130 -123 -132
f -133 -135 -134
f -133 -134 -130
f -119 -120 -130
f -119 -130 -134
f -119 -134 -139
f -119 -139 -136
f -136 -137 -118
f -136 -118 -119
f -117 -118 -137
f -117 -137 -116
f -117 -115 -114
f -117 -114 -118
f -115 -113 -112
f -115 -112 -114
f -115 -145 -111
f -115 -111 -113
f -117 -146 -145
f -117 -145 -115
f -114 -120 -119
f -114 -119 -118
f -110 -116 -137
f -110 -137 -140
f -116 -110 -143
f -116 -143 -147
f -140 -142 -141
f -140 -141 -110
f -110 -141 -144
f -110 -144 -143
f -109 -155 -122
f -109 -122 -121
f -155 -109 -149
f -155 -149 -157
f -149 -109 -121
f -149 -121 -148
f -113 -111 -108
f -113 -108 -107
f -124 -112 -113
f -124 -113 -107
f -107 -106 -127
f -107 -127 -124
f -105 -126 -127
f -105 -127 -106
f -104 -105 -106
f -104 -106 -103
f -103 -101 -102
f -103 -102 -104
f -106 -107 -108
f -106 -108 -103
f -152 -150 -105
f -152 -105 -104
f -126 -105 -150
f -126 -150 -148
f -100 -99 -98
f -100 -98 -97
f -96 -100 -95
f -96 -95 -94
f -93 -92 -91
f -93 -91 -96
f -93 -90 -89
f -93 -89 -92
f -88 -89 -90
f -88 -90 -87
f -86 -85 -89
f -86 -89 -88
f -86 -84 -83
f -86 -83 -85
f -84 -82 -81
f -84 -81 -83
f -84 -80 -79
f -84 -79 -82
f -86 -78 -80
f -86 -80 -84
f -87 -78 -86
f -87 -86 -88
f -78 -77 -76
f -78 -76 -80
f -78 -87 -75
f -78 -75 -77
f -80 -76 -74
f -80 -74 -79
f -74 -73 -72
f -74 -72 -71
f -73 -74 -76
f -73 -76 -70
f -69 -79 -74
f -69 -74 -71
f -82 -68 -67
f -82 -67 -81
f -79 -69 -68
f -79 -68 -82
f -68 -69 -66
f -68 -66 -67
f -65 -67 -66
f -65 -66 -64
f -63 -62 -64
f -63 -64 -66
f -69 -71 -63
f -69 -63 -66
f -61 -81 -67
f -61 -67 -65
f -60 -59 -61
f -60 -61 -65
f -58 -83 -81
f -58 -81 -61
f -57 -58 -61
f -57 -61 -59
f -92 -89 -85
f -92 -85 -56
f -91 -92 -56
f -91 -56 -55
f -99 -100 -96
f -99 -96 -91
f -91 -55 -98
f -91 -98 -99
f -57 -54 -98
f -57 -98 -55
f -57 -55 -56
f -57 -56 -58
f -58 -56 -85
f -58 -85 -83
f -87 -90 -53
f -87 -53 -75
f -53 -52 -51
f -53 -51 -75
f -50 -51 -52
f -50 -52 -49
f -50 -48 -47
f -50 -47 -51
f -48 -46 -70
f -48 -70 -47
f -45 -73 -70
f -45 -70 -46
f -73 -45 -44
f -73 -44 -72
f -43 -44 -45
f -43 -45 -42
f -41 -42 -45
f -41 -45 -46
f -41 -46 -48
f -41 -48 -40
f -40 -39 -38
f -40 -38 -41
f -40 -49 -37
f -40 -37 -39
f -49 -40 -48
f -49 -48 -50
f -77 -47 -70
f -77 -70 -76
f -51 -47 -77
f -51 -77 -75
f -37 -49 -52
f -37 -52 -36
f -94 -35 -36
f -94 -36 -34
f -96 -94 -34
f -96 -34 -93
f -34 -36 -52
f -34 -52 -53
f -93 -34 -53
f -93 -53 -90
f -95 -33 -35
f -95 -35 -94
f -33 -95 -32
f -33 -32 -31
f -33 -30 -29
f -33 -29 -35
f -33 -31 -28
f -33 -28 -30
f -27 -26 -31
f -27 -31 -32
f -32 -97 -25
f -32 -25 -27
f -100 -97 -32
f -100 -32 -95
f -35 -29 -37
f -35 -37 -36
f -24 -23 -60
f -24 -60 -22
f -21 -24 -22
f -21 -22 -20
f -21 -20 -19
f -21 -19 -18
f -17 -19 -20
f -17 -20 -62
f -17 -16 -43
f -17 -43 -15
f -62 -63 -16
f -62 -16 -17
f -44 -43 -16
f -44 -16 -72
f -63 -71 -72
f -63 -72 -16
f -15 -14 -13
f -15 -13 -12
f -41 -38 -14
f -41 -14 -42
f -15 -43 -42
f -15 -42 -14
f -11 -13 -14
f -11 -14 -38
f -11 -10 -9
f -11 -9 -13
f -26 -8 -9
f -26 -9 -10
f -27 -7 -8
f -27 -8 -26
f -7 -27 -25
f -7 -25 -6
f -7 -21 -18
f -7 -18 -8
f -6 -24 -21
f -6 -21 -7
f -18 -5 -9
f -18 -9 -8
f -9 -5 -12
f -9 -12 -13
f -12 -5 -18
f -12 -18 -19
f -10 -28 -31
f -10 -31 -26
f -28 -10 -11
f -28 -11 -4
f -39 -4 -11
f -39 -11 -38
f -4 -29 -30
f -4 -30 -28
f -37 -29 -4
f -37 -4 -39
f -12 -19 -17
f -12 -17 -15
f -22 -64 -62
f -22 -62 -20
f -65 -64 -22
f -65 -22 -60
f -23 -24 -6
f -23 -6 -3
f -3 -54 -57
f -3 -57 -59
f -3 -6 -25
f -3 -25 -54
f -3 -59 -60
f -3 -60 -23
f -543 -503 -561
f -543 -561 -562
f -524 -487 -531
f -524 -531 -528
f -530 -531 -487
f -530 -487 -485
f -516 -520 -521
f -516 -521 -519
f -445 -405 -463
f -445 -463 -464
f -426 -389 -433
f -426 -433 -430
f -432 -433 -389
f -432 -389 -387
f -418 -422 -423
f -418 -423 -421
f -333 -334 -2
f -333 -2 -281
f -281 -2 -1
f -281 -1 -280
f -339 -346 -345
f -339 -345 -1
f -340 -339 -1
f -340 -1 -2
f -345 -343 -280
f -345 -280 -1
f -334 -337 -340
f -334 -340 -2
f -286 -283 -274
f -286 -274 -285
f -282 -273 -274
f -282 -274 -283
f -307 -306 -312
f -307 -312 -313
f -273 -282 -280
f -273 -280 -343
f -350 -347 -318
f -350 -318 -342
f -343 -344 -275
f -343 -275 -273
f -275 -344 -342
f -275 -342 -316
f -319 -316 -342
f -319 -342 -318
f -235 -233 -190
f -235 -190 -230
f -176 -175 -243
f -176 -243 -242
f -230 -207 -208
f -230 -208 -231
f -232 -231 -208
f -232 -208 -224
f -241 -227 -176
f -241 -176 -242
f -227 -225 -204
f -227 -204 -176
f -160 -158 -122
f -160 -122 -155
f -120 -114 -112
f -120 -112 -123
f -121 -128 -126
f -121 -126 -148
f -112 -124 -125
f -112 -125 -123
f -54 -25 -97
f -54 -97 -98

